individual1
…
## # A tibble: 7 x 2
##   DAY_WEEK num.accidents
##      <int>         <int>
## 1        1          7758
## 2        2          6821
## 3        3          6744
## 4        4          6778
## 5        5          7212
## 6        6          8354
## 7        7          8607

joined %>% group_by(HOUR.x) %>% summarize(num.accidents = n())

## # A tibble: 25 x 2
##    HOUR.x num.accidents
##     <int>         <int>
##  1      0          1734
##  2      1          1505
##  3      2          1630
##  4      3          1223
##  5      4          1076
##  6      5          1532
##  7      6          1958
##  8      7          1894
##  9      8          1527
## 10      9          1561
## # ... with 15 more rows
…
colnames(glcs)[colnames(glcs)=="County Code"] <- 'COUNTY'
glcs$COUNTY <- as.numeric(glcs$COUNTY)
dat <- full_join(acc[1:12,], glcs, by='COUNTY')

counties$`County Name`<- toupper(counties$subregion)
library(dplyr)
counties1 <- counties %>%
  select(long, lat, group, region, `County Name`)

dat1 <- full_join(dat[1:58,], counties1, by='County Name')
 dat1 %>% group_by(COUNTY) %>% mutate(total= n())

## # A tibble: 138,565 x 66
## # Groups:   COUNTY [2]
##    STATE ST_CASE VE_TOTAL VE_FORMS PVH_INVL  PEDS PERNOTMVIT PERMVIT
##    <int>   <int>    <int>    <int>    <int> <int>      <int>   <int>
##  1     1   10001        1        1        0     0          0       1
##  2     1   10001        1        1        0     0          0       1
##  3     1   10001        1        1        0     0          0       1
##  4     1   10001        1        1        0     0          0       1
##  5     1   10001        1        1        0     0          0       1
##  6     1   10001        1        1        0     0          0       1
##  7     1   10001        1        1        0     0          0       1
##  8     1   10001        1        1        0     0          0       1
##  9     1   10001        1        1        0     0          0       1
## 10     1   10001        1        1        0     0          0       1
## # ... with 138,555 more rows, and 58 more variables: PERSONS <int>,
## #   COUNTY <dbl>, CITY <int>, DAY <int>, MONTH <int>, YEAR <int>,
## #   DAY_WEEK <int>, HOUR <int>, MINUTE <int>, NHS <int>, RUR_URB <int>,
## #   FUNC_SYS <int>, RD_OWNER <int>, ROUTE <int>, TWAY_ID <chr>,
## #   TWAY_ID2 <chr>, MILEPT <int>, LATITUDE <dbl>, LONGITUD <dbl>,
## #   SP_JUR <int>, HARM_EV <int>, MAN_COLL <int>, RELJCT1 <int>,
## #   RELJCT2 <int>, TYP_INT <int>, WRK_ZONE <int>, REL_ROAD <int>,
## #   LGT_COND <int>, WEATHER1 <int>, WEATHER2 <int>, WEATHER <int>,
## #   SCH_BUS <int>, RAIL <chr>, NOT_HOUR <int>, NOT_MIN <int>,
…
